%YAML 1.1
%TAG !u! tag:unity3d.com,2011:
--- !u!1045 &1
EditorBuildSettings:
  m_ObjectHideFlags: 0
  serializedVersion: 2
  m_Scenes:
  - enabled: 1
    path: Assets/Scenes/LoadingScene.unity
    guid: 64a0efef2b766704e88dfab562377969
  - enabled: 1
    path: Assets/Scenes/Dungeon.unity
    guid: b59105c2fd219164a9894f5f6fa3d0d6
